{
    "Header": {
        "student_name": "Mr. Koala",
        "image_file_name":"Lighthouse.jpg"
    },
    "pages": [{
        "index": [
            {
                "image_file_name":"Koala.jpg",
                "caption":"Me!"
            },
            {
                "paragraph":"This is me, Mr. Koala. My friends call me Coco Koala."
            },
            {
                "paragraph":"My friends are very formal. We don't see each other much, but they send me pictures. Here they are dressed in tuxedoes."
            },
            {
                "image_file_name":"Penguins.jpg",
                "caption":"Friends!"
                
            },
            {
                "paragraph":"This portfolio is about me. You can see my "
            },
            {
                "text":"Courses",
                "path":"./courses.html"
            },
            {
                "paragraph":",  "
            },
            {
                "text":"Favorite Websites",
                "path":"./cool_websites.html"
            },
            {
                "paragraph":", my "
            },
            {
                "text":"Dream Vacation",
                "path":"./best_vacation.html"
            },
            {
                "paragraph":" or just a little "
            },
            {
                "text":"About Me!",
                "path":"./about_me.html"
            }
            
    ]
    },
    {"courses" : [
        {"paragraph":"This is the page where I show you my favorite classes."
    },
    
        {"list":[
            {"li":"AMS 341"},
            {"li":"AMS 345"},
            {"li":"AMS 311"}
        ]
        }]},
   {"cool_websites" : [{
        "video_file_name":"vid.mp4"
   }
   ]},
    {"best_vacation" : [{
    "slides":[
        {
            "image_file_name":"BryceCanyonUtah.jpg",
            "caption":"Cool!"
        },
        {
            "image_file_name":"SaltUtah.jpg",
            "caption":"Awesome!"
        }
    ]
    }]},
    {"about_me": [
            {
                "header":"The End!"
            },
            {
        "paragraph":"I hope you liked my site. I showed you a bit of everything, and it's a work of progress!"
    }
    ]}
    ]
}
