
{
    "Header":{
        "student_name":"ENTER NAME"
    },
    "pages":[
        {
            "ENTER PAGE TITLE":[
                {
                    "Paragraph":{
                        "paragraph":"sadfa",
                        "font":"Muli"
                    }
                },
                {
                    "footer":"",
                    "color":"default",
                    "font":"default",
                    "layout":"default"
                }
            ]
        },
        {
            "ENTER PAGE TITLE":[
                {
                    "footer":"",
                    "color":"default",
                    "font":"default",
                    "layout":"default"
                }
            ]
        },
        {
            "ENTER PAGE TITLE":[
                {
                    "footer":"",
                    "color":"default",
                    "font":"default",
                    "layout":"default"
                }
            ]
        },
        {
            "ENTER PAGE TITLE":[
                {
                    "footer":"",
                    "color":"default",
                    "font":"default",
                    "layout":"default"
                }
            ]
        }
    ]
}